…
``` r
# age normalized to mean of hospital group
linelist %>%
  group_by(hospital) %>%
  mutate(age_norm = age / mean(age, na.rm = T))
```

    ## # A tibble: 6,608 x 26
    ## # Groups:   hospital [14]
    ##    case_id generation date_infection      date_onset date_hospitalisation
    ##    <chr>        <dbl> <dttm>              <chr>      <dttm>              
    ##  1 5fe599           4 2014-05-08 00:00:00 2014-05-13 2014-05-15 00:00:00 
    ##  2 8689b7           4 NA                  2014-05-13 2014-05-14 00:00:00 
    ##  3 11f8ea           2 NA                  2014-05-16 2014-05-18 00:00:00 
    ##  4 b8812a           3 2014-05-04 00:00:00 2014-05-18 2014-05-20 00:00:00 
    ##  5 893f25           3 2014-05-18 00:00:00 2014-05-21 2014-05-22 00:00:00 
    ##  6 be99c8           3 2014-05-03 00:00:00 2014-05-22 2014-05-23 00:00:00 
    ##  7 07e3e8           4 2014-05-22 00:00:00 2014-05-27 2014-05-29 00:00:00 
    ##  8 369449           4 2014-05-28 00:00:00 2014-06-02 2014-06-03 00:00:00 
    ##  9 f393b4           4 NA                  2014-06-05 2014-06-06 00:00:00 
    ## 10 1389ca           4 NA                  2014-06-05 2014-06-07 00:00:00 
    ## # ... with 6,598 more rows, and 21 more variables: date_outcome <dttm>,
    ## #   outcome <chr>, gender <chr>, hospital <chr>, lon <dbl>, lat <dbl>,
    ## #   infector <chr>, source <chr>, age <dbl>, age_unit <chr>, wt_kg <dbl>,
    ## #   ht_cm <dbl>, ct_blood <dbl>, fever <chr>, chills <chr>, cough <chr>,
    ## #   aches <chr>, vomit <chr>, temp <dbl>, time_admission <chr>, age_norm <dbl>
…
